Homework Assignment: Sentiment Analysis of Emma
…
3. Sentiment Analysis

Filter joy/positive words from each of the three sentiment lexicons:

nrc (joy)

# nrc sentiment lexicon (one of ten emotions)
nrc_austen <- tidy_austen %>% 
  filter(word %in% get_sentiments("nrc")$word[(str_detect(get_sentiments("nrc")$sentiment, "joy"))]) ## subsets get_sentiments to only joy terms, then uses this to filter the austen tokens

nrc_austen

# A tibble: 16,647 × 4
   book                chapter linenumber word        
   <fct>                 <int>      <int> <chr>       
 1 Sense & Sensibility       1         19 companion   
 2 Sense & Sensibility       1         28 goodness    
 3 Sense & Sensibility       1         29 comfort     
 4 Sense & Sensibility       1         29 cheerfulness
 5 Sense & Sensibility       1         32 marriage    
 6 Sense & Sensibility       1         34 fortune     
 7 Sense & Sensibility       1         34 mother      
 8 Sense & Sensibility       1         36 marriage    
 9 Sense & Sensibility       1         37 wealth      
10 Sense & Sensibility       1         38 fortune     
# ℹ 16,637 more rows

afinn (positive scores ≥ 1)

# afinn sentiment lexicon (values from -5 to +5)
afinn_austen <- tidy_austen %>% 
  filter(word %in% (get_sentiments("afinn") %>% ## different approach here, used pipe instead of subset
                    filter(value >= 1) %>% 
                    pull(word)
                  )
  )

afinn_austen

# A tibble: 20,169 × 4
   book                chapter linenumber word     
   <fct>                 <int>      <int> <chr>    
 1 Sense & Sensibility       1         16 engage   
 2 Sense & Sensibility       1         18 advanced 
 3 Sense & Sensibility       1         22 legal    
 4 Sense & Sensibility       1         26 increased
 5 Sense & Sensibility       1         27 wishes   
 6 Sense & Sensibility       1         28 goodness 
 7 Sense & Sensibility       1         28 solid    
 8 Sense & Sensibility       1         29 comfort  
 9 Sense & Sensibility       1         37 wealth   
10 Sense & Sensibility       1         42 secured  
# ℹ 20,159 more rows

bing (positive)

# bing sentiment lexicon (positive or negative)
bing_austen <- tidy_austen %>% 
  filter(word %in% (get_sentiments("bing") %>%
                    filter(sentiment == "positive") %>% 
                    pull(word)
                  )
  )

bing_austen

# A tibble: 22,770 × 4
   book                chapter linenumber word       
   <fct>                 <int>      <int> <chr>      
 1 Sense & Sensibility       1         16 respectable
 2 Sense & Sensibility       1         18 advanced   
 3 Sense & Sensibility       1         25 comfortably
 4 Sense & Sensibility       1         28 goodness   
 5 Sense & Sensibility       1         28 solid      
 6 Sense & Sensibility       1         29 comfort    
 7 Sense & Sensibility       1         30 relish     
 8 Sense & Sensibility       1         33 steady     
 9 Sense & Sensibility       1         33 respectable
10 Sense & Sensibility       1         34 amply      
# ℹ 22,760 more rows
…
Warning in inner_join(., tidy_austen, by = "word"): Detected an unexpected many-to-many relationship between `x` and `y`.
ℹ Row 1 of `x` matches multiple rows in `y`.
ℹ Row 100 of `y` matches multiple rows in `x`.
ℹ If a many-to-many relationship is expected, set `relationship =
  "many-to-many"` to silence this warning.

emma_nrc

# A tibble: 180 × 2
# Groups:   word [180]
   word          n
   <chr>     <int>
 1 friend    98438
 2 hope      85943
 3 happy     66750
 4 love      57915
 5 found     43148
 6 mother    30837
 7 happiness 28044
 8 deal      27876
 9 spirits   21376
10 comfort   18980
# ℹ 170 more rows
…
Warning in inner_join(., tidy_austen, by = "word"): Detected an unexpected many-to-many relationship between `x` and `y`.
ℹ Row 1 of `x` matches multiple rows in `y`.
ℹ Row 199 of `y` matches multiple rows in `x`.
ℹ If a many-to-many relationship is expected, set `relationship =
  "many-to-many"` to silence this warning.

emma_afinn

# A tibble: 244 × 2
# Groups:   word [244]
   word           n
   <chr>      <int>
 1 dear      198102
 2 hope       85943
 3 happy      66750
 4 love       57915
 5 pleasure   53130
 6 happiness  28044
 7 comfort    18980
 8 perfectly  18157
 9 pretty     16456
10 feeling    13832
# ℹ 234 more rows
…
Warning in inner_join(., tidy_austen, by = "word"): Detected an unexpected many-to-many relationship between `x` and `y`.
ℹ Row 1 of `x` matches multiple rows in `y`.
ℹ Row 556 of `y` matches multiple rows in `x`.
ℹ If a many-to-many relationship is expected, set `relationship =
  "many-to-many"` to silence this warning.

emma_bing

# A tibble: 321 × 2
# Groups:   word [321]
   word          n
   <chr>     <int>
 1 happy     66750
 2 love      57915
 3 pleasure  53130
 4 happiness 28044
 5 comfort   18980
 6 perfectly 18157
 7 pretty    16456
 8 ready     14916
 9 affection 13600
10 glad      13150
# ℹ 311 more rows
…
